<?xml version="1.0" encoding="UTF-8" standalone="no"?>
<svg
   xmlns:dc="http://purl.org/dc/elements/1.1/"
   xmlns:cc="http://creativecommons.org/ns#"
   xmlns:rdf="http://www.w3.org/1999/02/22-rdf-syntax-ns#"
   xmlns:svg="http://www.w3.org/2000/svg"
   xmlns="http://www.w3.org/2000/svg"
   xmlns:sodipodi="http://sodipodi.sourceforge.net/DTD/sodipodi-0.dtd"
   xmlns:inkscape="http://www.inkscape.org/namespaces/inkscape"
   width="1280"
   height="1280"
   viewBox="0 0 338.66666 338.66667"
   version="1.1"
   id="svg1129"
   inkscape:version="1.0.1 (3bc2e813f5, 2020-09-07, custom)"
   sodipodi:docname="brick.svg">
  <defs
     id="defs1123" />
  <sodipodi:namedview
     id="base"
     pagecolor="#ffffff"
     bordercolor="#666666"
     borderopacity="1.0"
     inkscape:pageopacity="0.0"
     inkscape:pageshadow="2"
     inkscape:zoom="0.35"
     inkscape:cx="745.86791"
     inkscape:cy="398.83434"
     inkscape:document-units="mm"
     inkscape:current-layer="layer1"
     inkscape:document-rotation="0"
     showgrid="false"
     units="px"
     fit-margin-top="0"
     fit-margin-left="0"
     fit-margin-right="0"
     fit-margin-bottom="0"
     inkscape:window-width="1706"
     inkscape:window-height="922"
     inkscape:window-x="2665"
     inkscape:window-y="185"
     inkscape:window-maximized="0" />
  <metadata
     id="metadata1126">
    <rdf:RDF>
      <cc:Work
         rdf:about="">
        <dc:format>image/svg+xml</dc:format>
        <dc:type
           rdf:resource="http://purl.org/dc/dcmitype/StillImage" />
        <dc:title></dc:title>
      </cc:Work>
    </rdf:RDF>
  </metadata>
  <g
     inkscape:label="Слой 1"
     inkscape:groupmode="layer"
     id="layer1"
     transform="translate(-103.01108,-96.207316)">
    <g
       id="g1073"
       transform="matrix(15.874814,0,0,15.874664,-1293.9109,-5068.3502)">
      <rect
         style="fill:#802020;fill-opacity:1;fill-rule:evenodd;stroke:none;stroke-width:2"
         id="rect1037"
         width="10.6664"
         height="2.6666701"
         x="87.996361"
         y="325.33377" />
      <rect
         style="fill:#802020;fill-opacity:1;fill-rule:evenodd;stroke:none;stroke-width:2"
         id="rect1039"
         width="8.0002775"
         height="2.6670866"
         x="101.32942"
         y="325.33334" />
      <rect
         style="fill:#802020;fill-opacity:1;fill-rule:evenodd;stroke:none;stroke-width:2"
         id="rect1041"
         width="2.6666601"
         height="5.3333402"
         x="101.32942"
         y="328.00043" />
      <rect
         style="fill:#802020;fill-opacity:1;fill-rule:evenodd;stroke:none;stroke-width:2"
         id="rect1043"
         width="18.66692"
         height="2.6666701"
         x="90.662781"
         y="336.00043" />
      <rect
         style="fill:#802020;fill-opacity:1;fill-rule:evenodd;stroke:none;stroke-width:2"
         id="rect1045"
         width="2.6666601"
         height="5.3333402"
         x="90.662781"
         y="338.66711" />
      <rect
         style="fill:#a06020;fill-opacity:1;fill-rule:evenodd;stroke:none;stroke-width:2"
         id="rect1047"
         width="10.66664"
         height="5.3333402"
         x="87.996117"
         y="328.00043" />
      <rect
         style="fill:#a06020;fill-opacity:1;fill-rule:evenodd;stroke:none;stroke-width:2"
         id="rect1049"
         width="5.3336201"
         height="5.3333402"
         x="103.99608"
         y="328.00043" />
      <rect
         style="fill:#a06020;fill-opacity:1;fill-rule:evenodd;stroke:none;stroke-width:2"
         id="rect1051"
         width="15.99996"
         height="5.3333402"
         x="93.329437"
         y="338.66711" />
      <rect
         style="fill:#808080;fill-opacity:1;fill-rule:evenodd;stroke:none;stroke-width:2"
         id="rect1053"
         width="2.6666601"
         height="8.0000095"
         x="98.662758"
         y="325.33377" />
      <rect
         style="fill:#808080;fill-opacity:1;fill-rule:evenodd;stroke:none;stroke-width:2"
         id="rect1055"
         width="21.33334"
         height="2.6666701"
         x="87.996361"
         y="333.33377" />
      <rect
         style="fill:#808080;fill-opacity:1;fill-rule:evenodd;stroke:none;stroke-width:2"
         id="rect1057"
         width="2.66642"
         height="10.66668"
         x="87.996361"
         y="336.00043" />
      <rect
         style="fill:#808080;fill-opacity:1;fill-rule:evenodd;stroke:none;stroke-width:2"
         id="rect1059"
         width="18.66662"
         height="2.6666701"
         x="90.662781"
         y="344.00046" />
    </g>
  </g>
</svg>
