{
  "files": {
    "main.css": "/static/css/main.c1ce2f07.chunk.css",
    "main.js": "/static/js/main.45626ad8.chunk.js",
    "main.js.map": "/static/js/main.45626ad8.chunk.js.map",
    "runtime-main.js": "/static/js/runtime-main.94004675.js",
    "runtime-main.js.map": "/static/js/runtime-main.94004675.js.map",
    "static/js/2.731f2067.chunk.js": "/static/js/2.731f2067.chunk.js",
    "static/js/2.731f2067.chunk.js.map": "/static/js/2.731f2067.chunk.js.map",
    "static/js/3.2f6ee945.chunk.js": "/static/js/3.2f6ee945.chunk.js",
    "static/js/3.2f6ee945.chunk.js.map": "/static/js/3.2f6ee945.chunk.js.map",
    "index.html": "/index.html",
    "static/css/main.c1ce2f07.chunk.css.map": "/static/css/main.c1ce2f07.chunk.css.map",
    "static/js/2.731f2067.chunk.js.LICENSE.txt": "/static/js/2.731f2067.chunk.js.LICENSE.txt",
    "static/media/index.css": "/static/media/brick.0aebf174.svg"
  },
  "entrypoints": [
    "static/js/runtime-main.94004675.js",
    "static/js/2.731f2067.chunk.js",
    "static/css/main.c1ce2f07.chunk.css",
    "static/js/main.45626ad8.chunk.js"
  ]
}